rank,player,age,events,rounds_played,cust_made,missed_cuts,top_10,wins,earnings,total_drives,total_driving_distance,average_driving_distance,average_strokes,total_strokes,total_adjustment,ott,app,putt,total_putts,putts_per_round,fairway,gir
1,Dustin Johnson,32,22,82,21,1,15,3,"$9,365,185 ",156,48921,313.6,69.17,5697,-24.86,1.12,0.48,0.33,2336,28.49,57.2%,67.8%
2,Jason Day,29,20,69,17,3,10,3,"$8,045,112 ",138,41973,304.2,69.31,4810,-27.38,0.19,0.43,1.13,1936,28.06,50.5%,67.2%
3,Adam Scott,36,20,76,20,0,9,2,"$6,473,090 ",166,41422,304.6,69.47,5305,-25.29,0.52,1.49,-0.17,2242,29.5,55.6%,70.8%
4,Rory McIlroy,27,18,62,15,3,8,2,"$5,790,586 ",136,35585,306.8,69.65,4338,-19.92,1.23,0.45,-0.21,1809,29.18,61.1%,69.6%
5,Patrick Reed,26,28,101,24,4,11,1,"$5,679,575 ",186,55324,297.4,70.17,7085,2.17,0.18,0.16,0.28,2812,28.4,56.0%,64.7%
6,Jordan Spieth ,23,21,76,19,2,8,2,"$5,538,471 ",144,42543,295.4,69.52,5299,-15.46,0.4,0.15,0.76,2114,27.82,58.1%,63.5%
7,Russell Knox,31,25,89,21,4,4,2,"$4,885,907 ",162,46292,285.8,70.32,6266,-7.63,0.13,0.36,-0.05,2627,29.52,68.5%,69.7%
8,Kevin Chappell,30,27,93,19,8,8,0,"$4,501,050 ",178,52737,296.3,70.5,6561,-4.39,0.32,0.63,-0.31,2701,29.04,60.7%,66.4%
9,Hideki Matsuyama,24,23,73,16,7,8,1,"$4,193,954 ",134,39467,294.5,70.03,5121,-8.49,0.53,0.77,-0.03,2104,28.82,62.0%,68.1%
10,Jimmy Walker ,38,25,82,18,7,5,1,"$4,148,547 ",164,49410,301.3,70.39,5785,-12.79,-0.14,0.58,0.24,2360,28.78,48.3%,64.0%
11,Justin Thomas ,23,28,96,22,6,7,1,"$4,126,366 ",176,53034,301.3,70.57,6789,-14.16,0.03,0.49,-0.19,2811,29.28,53.9%,65.6%
12,Phil Mickelson,46,22,72,16,6,6,0,"$4,022,628 ",144,42456,294.8,69.58,5038,-28.12,-0.15,0.73,0.57,2031,28.21,54.8%,66.1%
13,Brandt Snedeker,35,27,89,20,7,7,1,"$3,960,142 ",178,52078,292.6,70.2,6250,-1.95,0.03,0.18,0.34,2551,28.66,58.7%,65.7%
14,Paul Casey,39,22,74,17,5,7,0,"$3,833,560 ",132,38966,295.2,69.95,5195,-18.73,0.49,0.62,0.11,2197,29.69,64.7%,70.8%
15,Matt Kuchar,38,26,96,24,2,10,0,"$3,819,679 ",192,54876,285.8,69.84,6724,-19.01,0.36,0.33,0.38,2786,29.02,65.7%,67.8%
16,Ryan Moore ,33,23,81,19,4,9,1,"$3,701,035 ",154,43615,283.2,70.32,5689,6.66,-0.11,0.42,0.35,2315,28.58,66.5%,65.8%
17,William McGirt,37,28,98,20,8,7,1,"$3,614,972 ",196,56373,287.6,70.39,6898,0.55,0.04,0.16,-0.03,2850,29.08,65.3%,67.4%
18,Bubba Watson ,38,19,69,17,2,4,1,"$3,492,842 ",130,40382,310.6,70.33,4867,-14.04,0.98,0.39,-0.37,2055,29.78,55.1%,69.2%
19,Kevin Na ,33,26,93,22,4,8,0,"$3,441,291 ",170,47531,279.6,70.3,6535,2.75,-0.32,0.79,0.07,2682,28.84,65.3%,66.7%
20,Kevin Kisner ,32,27,94,22,5,6,1,"$3,424,354 ",172,49704,289,70.49,6626,-0.01,0.35,-0.14,0.67,2692,28.64,64.9%,65.2%
21,Henrik Stenson,40,14,46,10,4,4,1,"$3,397,373 ",76,22166,291.7,69.82,3226,-13.93,0.59,1.24,-0.39,1364,29.65,70.5%,72.1%
22,Emiliano Grillo,24,25,90,22,3,3,1,"$3,371,706 ",172,50626,294.3,70.64,6367,-9.69,0.45,0.26,-0.06,2670,29.67,66.9%,68.5%
23,Brooks Koepka,26,21,71,17,4,7,0,"$3,322,393 ",140,42359,302.6,69.96,4909,-12.09,0.54,0.14,0.45,2017,28.81,58.6%,67.0%
24,Daniel Berger ,23,26,90,22,4,6,1,"$3,243,014 ",162,48337,298.4,70.34,6267,-6.86,0.33,0.49,0.18,2588,29.08,56.7%,67.7%
25,Sergio Garcia,36,15,51,13,2,4,1,"$3,242,156 ",86,25792,299.9,70,3590,-20.06,0.74,0.48,-0.39,1517,29.75,61.8%,70.2%
26,Si Woo Kim,21,34,109,22,12,5,1,"$3,086,369 ",217,63684,293.5,70.56,7667,24.03,0.34,-0.13,-0.11,3117,28.6,62.8%,64.8%
27,J.B. Holmes,34,22,74,17,5,6,0,"$2,969,608 ",148,46541,314.5,70.52,5243,-24.29,0.63,-0.21,-0.15,2134,28.84,51.7%,65.2%
28,Charl Schwartzel ,32,19,70,18,1,5,1,"$2,936,028 ",132,39161,296.7,70,4921,-20.75,0.3,0.65,-0.14,2054,29.34,56.9%,68.7%
29,Danny Willett,29,9,30,8,1,3,1,"$2,918,132 ",52,54326,282.9,69.67,2125,-34.75,0.36,0.23,0.17,886,29.53,62.0%,68.2%
30,Scott Piercy ,38,24,84,20,4,3,0,"$2,905,349 ",150,44680,297.9,70.86,5951,0.78,0.45,0.04,-0.29,2476,29.48,59.4%,67.3%
31,Jason Dufner ,39,28,102,25,3,6,1,"$2,879,884 ",196,57471,293.2,70.21,7168,-6.33,0.29,0.47,-0.35,3018,29.59,62.8%,70.2%
32,Branden Grace,28,18,60,14,4,6,1,"$2,878,868 ",104,30742,295.6,70.2,4247,-34.75,0.33,0.6,-0.11,1757,29.28,55.1%,66.8%
33,Rickie Fowler ,27,23,77,18,5,8,0,"$2,713,564 ",146,44029,301.6,70.12,5403,-3.94,0.53,0.31,0.15,2245,29.16,58.7%,69.3%
34,Graeme McDowell,37,21,60,11,10,5,1,"$2,596,170 ",120,33773,281.4,70.9,4272,-18.04,-0.13,0.16,-0.21,1753,29.22,67.7%,64.4%
35,Roberto Castro ,31,27,97,22,5,4,0,"$2,520,575 ",194,55136,284.2,70.59,6802,45.07,0.22,0.44,-0.26,2837,29.25,69.4%,69.1%
36,Smylie Kaufman,24,28,88,18,10,4,1,"$2,508,174 ",176,52632,299,71.02,6241,8.28,0.08,0.07,0.13,2568,29.18,52.9%,66.3%
37,Jhonattan Vegas,32,27,93,20,7,5,1,"$2,478,980 ",186,56616,304.4,70.9,6561,32.94,0.48,0.15,0.1,2760,29.68,56.6%,69.7%
38,Louis Oosthuizen ,34,17,56,13,4,3,0,"$2,422,079 ",104,30571,294,70.33,3970,-31.71,0.39,0.3,-0.02,1663,29.7,61.7%,68.2%
39,Gary Woodland,32,26,91,21,5,3,0,"$2,392,044 ",166,50811,306.1,70.23,6387,4.3,0.55,0.46,-0.13,2663,29.26,56.7%,68.7%
40,Bill Haas ,34,24,82,19,5,6,0,"$2,390,200 ",164,47495,289.6,70.44,5798,-21.59,0.07,0.27,-0.17,2414,29.44,62.3%,67.1%
41,James Hahn ,35,26,85,16,10,3,1,"$2,367,521 ",160,46543,290.9,71.25,6063,-7.2,-0.03,-0.09,-0.25,2505,29.47,60.7%,64.6%
42,Charley Hoffman ,39,26,88,20,6,1,1,"$2,350,240 ",176,52477,298.2,70.66,6254,-36.13,0.5,0.19,-0.04,2567,29.17,54.8%,64.6%
43,Fabian Gomez ,38,26,79,16,10,4,1,"$2,227,041 ",158,45664,289,71.35,5638,-1.7,0.01,-0.29,0.21,2296,29.06,61.4%,63.7%
44,Jim Herman ,39,29,93,18,11,2,1,"$2,091,274 ",178,51815,291.1,71.21,6632,-9.87,0.47,-0.24,-0.28,2737,29.43,65.6%,65.7%
45,Justin Rose,36,18,62,15,3,5,0,"$2,085,365 ",124,37687,303.9,70.15,4381,-31.85,0.68,0.41,-0.2,1834,29.58,57.9%,67.9%
46,Daniel Summerhays ,32,28,99,21,7,2,0,"$2,045,968 ",182,52423,288,70.77,7008,-1.66,-0.13,-0.26,0.59,2825,28.54,58.7%,63.0%
47,Harris English,27,27,97,22,5,3,0,"$2,014,283 ",177,52951,299.2,70.46,6854,-19.12,-0.34,0.2,0.59,2801,28.88,55.0%,64.8%
48,Charles Howell III ,37,25,91,21,4,5,0,"$1,974,962 ",174,52788,303.4,70.42,6376,32.03,0.13,0.08,0.13,2646,29.08,52.6%,68.0%
49,Jamie Lovemark,28,27,91,19,8,5,0,"$1,940,890 ",181,55160,304.8,70.9,6434,17.56,0.53,-0.5,0.14,2630,28.9,57.3%,65.3%
50,Jason Kokrak ,31,28,89,17,11,4,0,"$1,934,250 ",178,54711,307.4,70.57,6283,-2.31,0.6,0.43,-0.27,2638,29.64,58.4%,68.7%
51,Jon Curran,29,30,99,19,11,3,0,"$1,902,481 ",190,51654,271.9,71.15,7017,26.37,-0.66,0,0.41,2800,28.28,64.4%,63.0%
52,David Lingmerth ,29,24,81,18,6,2,0,"$1,863,783 ",146,41580,284.8,71.05,5746,9.08,0.19,0.12,0.06,2271,28.75,67.4%,64.0%
53,Tony Finau,27,28,95,19,9,2,1,"$1,814,790 ",182,56820,312.2,70.8,6721,4.72,0.46,-0.17,-0.11,2774,29.2,52.5%,65.1%
54,Ryan Palmer ,40,23,86,20,3,3,0,"$1,794,141 ",172,52410,304.7,70.23,6048,-8.31,0.63,0.23,-0.09,2487,28.92,57.9%,67.8%
55,Billy Hurley III,34,20,66,13,7,2,1,"$1,770,400 ",132,36657,277.7,70.85,4676,-0.16,-0.21,0.23,0.43,1872,28.36,65.4%,62.7%
56,Chris Kirk ,31,28,85,18,10,3,0,"$1,762,335 ",162,46313,285.9,70.92,6023,5.2,0.09,0.37,-0.01,2437,28.67,62.0%,64.1%
57,Billy Horschel ,29,20,70,17,3,5,0,"$1,744,571 ",140,41020,293,70.55,4971,-32.64,0.35,0.49,0.08,2065,29.5,60.7%,67.7%
58,Zach Johnson ,40,24,86,21,3,5,0,"$1,718,703 ",172,48185,280.1,70.36,6055,-3.74,-0.27,0.16,0.4,2450,28.49,57.2%,64.5%
59,Sean O'Hair,34,27,89,18,9,2,0,"$1,702,713 ",178,53787,302.2,70.68,6265,25.23,0.33,-0.19,0.21,2583,29.02,58.8%,67.2%
60,Brian Stuard ,33,20,66,13,7,1,1,"$1,666,014 ",132,36657,277.7,71.24,4687,14.95,-0.1,-0.11,-0.02,1898,28.76,71.1%,63.3%
61,Aaron Baddeley,35,28,89,18,10,5,1,"$1,644,915 ",178,51925,291.7,70.89,6277,32.06,-0.36,-0.38,0.4,2497,28.06,55.4%,63.1%
62,Vaughn Taylor ,40,24,72,12,12,1,1,"$1,640,750 ",144,41325,287,71.03,5122,-7.99,-0.11,0.61,-0.42,2087,28.99,61.6%,64.4%
63,Luke Donald ,38,23,81,17,6,2,0,"$1,634,515 ",146,41306,282.9,70.92,5741,3.39,-0.67,0.47,0.15,2345,28.95,56.7%,64.6%
64,Rafael Cabrera Bello,32,10,34,9,1,3,0,"$1,609,350 ",68,19773,286.4,69.86,2401,-25.63,0.57,0.11,0.54,1017,29.91,64.3%,69.9%
65,Kevin Streelman ,38,26,82,15,11,2,0,"$1,601,177 ",164,47406,289.1,71.05,5837,-10.56,0.26,0.2,-0.38,2441,29.77,64.4%,69.2%
66,Colt Knost ,31,26,86,19,7,2,0,"$1,594,587 ",164,44236,269.7,70.79,6093,-5.51,-0.18,0.26,0.38,2479,28.83,73.4%,65.3%
67,Brendan Steele ,33,25,84,18,7,1,0,"$1,589,266 ",160,48355,302.2,70.86,5955,-3.18,0.45,0.27,-0.26,2503,29.8,60.3%,68.7%
68,Shane Lowry,29,17,54,12,5,2,0,"$1,585,436 ",100,29869,298.7,70.64,3861,-46.42,0.49,-0.14,0.06,1596,29.56,61.9%,64.5%
69,Marc Leishman,33,25,86,20,5,2,0,"$1,566,824 ",156,46020,295,70.55,6066,1.62,0.16,-0.09,0.25,2481,28.85,60.6%,65.3%
70,Alex Cejka ,45,22,67,14,8,4,0,"$1,566,308 ",126,35475,281.5,70.68,4693,42.25,-0.29,0.63,0.01,1913,28.55,65.9%,68.0%
71,Kyle Reifers ,33,34,111,23,11,4,0,"$1,539,578 ",213,61187,287.3,70.97,7850,27.16,0.11,0.06,0.1,3257,29.34,65.3%,67.6%
72,Jim Furyk,46,14,52,12,2,3,0,"$1,538,204 ",104,29203,280.8,70.13,3670,-23.25,-0.23,0.47,0.07,1545,29.71,69.1%,68.3%
73,Patton Kizzire ,30,27,89,20,7,5,0,"$1,468,624 ",178,51848,291.3,70.92,6324,-12.04,-0.34,0.37,0.46,2570,28.88,55.2%,64.5%
74,Webb Simpson ,31,20,70,15,5,2,0,"$1,450,355 ",140,40075,286.3,70.36,4931,-5.87,0.15,0.73,-0.48,2055,29.36,62.2%,67.1%
75,Steve Stricker ,49,15,53,11,4,3,0,"$1,418,648 ",106,29471,278,70,3709,0.81,-0.44,0,0.62,1482,27.96,63.2%,63.0%
76,Danny Lee,26,28,90,20,8,2,0,"$1,405,722 ",168,48149,286.6,71.12,6418,-17.38,0.21,0.29,-0.21,2621,29.12,64.1%,64.0%
77,Jason Bohn ,43,21,67,12,9,3,0,"$1,369,705 ",134,37020,276.3,71.13,4738,27.42,-0.26,0.27,0.03,1929,28.79,67.6%,66.3%
78,Freddie Jacobson,42,26,86,18,8,3,0,"$1,354,196 ",172,48219,280.3,70.81,6073,16.54,-0.35,-0.13,0.48,2449,28.48,59.0%,64.9%
79,Bryce Molder ,37,26,78,14,12,5,0,"$1,353,385 ",156,43709,280.2,70.9,5514,16.31,-0.18,-0.33,0.55,2185,28.01,62.5%,61.3%
80,Jerry Kelly,49,23,76,15,8,2,0,"$1,328,657 ",144,40063,278.2,70.94,5367,24.24,0.01,0.43,-0.21,2217,29.17,71.2%,66.7%
81,K.J. Choi,46,22,73,14,8,2,0,"$1,328,448 ",146,40190,275.3,71.09,5178,11.75,-0.51,0.17,0.35,2105,28.84,66.2%,65.4%
82,Harold Varner III,26,28,92,18,10,4,0,"$1,327,320 ",182,54967,302,71.05,6539,-2.89,0.53,0.02,-0.38,2735,29.73,59.3%,66.2%
83,Brian Harman,29,31,104,21,10,2,0,"$1,299,802 ",199,57648,289.7,71,7350,33.61,0.26,-0.62,0.49,2979,28.64,63.4%,64.9%
84,Peter Malnati ,29,32,85,11,21,3,1,"$1,298,945 ",170,47549,279.7,71.69,6057,36.35,-0.54,-0.53,0.49,2409,28.34,60.5%,62.1%
85,Patrick Rodgers,24,28,85,16,12,3,0,"$1,290,337 ",170,51088,300.5,70.83,6000,20.84,0.36,-0.01,-0.19,2529,29.75,57.7%,69.2%
86,Byeong-Hun An,25,14,43,10,4,2,0,"$1,278,797 ",78,23371,293.7,70.99,2076,-23.49,0.33,0.04,-0.06,1254,29.16,54.8%,64.5%
87,Russell Henley,27,25,76,13,12,4,0,"$1,228,347 ",152,44929,295.6,70.56,5346,16.38,0.27,0.14,0.19,2227,29.3,63.2%,68.3%
88,Martin Laird,33,24,78,16,8,2,0,"$1,224,680 ",156,46569,298.5,70.87,5510,17.61,-0.21,0.3,0.16,2286,29.31,55.1%,67.7%
89,David Hearn ,37,29,95,19,10,2,0,"$1,211,514 ",182,51186,281.2,70.87,6699,33.69,-0.3,0.53,0.21,2763,29.08,65.9%,68.3%
90,Vijay Singh,53,22,72,14,8,2,0,"$1,210,104 ",144,41732,289.8,71.06,5135,-18.93,0.02,-0.01,-0.09,2089,29.01,56.7%,62.7%
91,Ben Martin ,29,28,88,17,11,1,0,"$1,205,731 ",168,48520,288.8,71.28,6235,37.82,0.08,0.08,0.14,2575,29.26,62.1%,66.7%
92,Spencer Levin ,32,32,100,19,13,2,0,"$1,179,882 ",192,54019,281.3,70.93,7063,29.7,0.04,0,0.01,2900,29,67.8%,66.3%
93,Chad Campbell ,42,28,90,17,11,3,0,"$1,168,073 ",172,49522,287.9,70.57,6326,24.98,0.15,0.31,-0.26,2645,29.39,64.4%,68.2%
94,Ricky Barnes,35,29,93,19,10,4,0,"$1,158,800 ",186,53488,287.6,70.78,6542,40.93,-0.52,0.2,0.39,2652,28.52,54.3%,65.8%
95,Scott Brown ,33,27,87,17,10,4,0,"$1,143,452 ",168,49144,292.5,71.1,6240,16.6,0.38,-0.13,0.02,2571,29.22,63.7%,65.0%
96,Lee Westwood,43,7,22,6,1,1,0,"$1,138,810 ",84,10358,287.7,70.55,1579,-26.95,0.08,0.67,-1.98,674,30.64,64.6%,66.9%
97,Jonas Blixt ,32,26,76,14,12,2,0,"$1,115,322 ",152,44126,290.3,71.19,5400,10.41,-0.29,-0.36,0.52,2127,27.99,57.8%,61.0%
98,Chez Reavie ,35,27,86,17,10,2,0,"$1,086,964 ",172,49411,287.3,70.66,6047,29.83,0.26,0.57,-0.26,2498,29.05,68.2%,68.1%
99,Brett Stegmaier ,33,29,86,16,13,3,0,"$1,086,714 ",169,49902,295.3,71,6010,24.61,0.13,0.13,-0.06,2509,29.52,60.9%,66.8%
100,Johnson Wagner ,36,26,86,17,9,3,0,"$1,083,787 ",172,49779,289.4,70.78,6063,24.16,0.03,0.22,0.27,2526,29.37,61.1%,69.4%
101,Francesco Molinari,34,18,64,14,4,3,0,"$1,083,155 ",128,36692,286.7,70.44,4524,-16.08,0.19,0.48,-0.3,1867,29.17,63.8%,64.9%
102,Andrew Loupe ,27,27,75,11,16,4,0,"$1,075,276 ",149,46084,309.3,71.42,5347,9.69,0.04,-0.3,0.3,2147,28.63,45.6%,63.4%
103,Adam Hadwin,29,27,93,20,7,2,0,"$1,067,809 ",185,53672,290.1,70.72,6554,22.88,0.15,-0.06,0.53,2655,28.55,63.6%,66.1%
104,Cameron Tringale ,29,25,77,15,10,1,0,"$1,064,066 ",146,41621,285.1,71.26,5467,19.74,-0.44,0.26,0.06,2243,29.13,59.6%,65.7%
105,Hudson Swafford,29,30,104,22,8,1,0,"$1,027,314 ",200,61380,306.9,70.88,7335,36.02,0.4,0.28,0.2,3066,29.48,61.4%,68.8%
106,Tyrone Van Aswegen ,34,31,102,22,9,2,0,"$1,025,632 ",202,58178,288,71.19,7245,16.31,-0.5,0.54,-0.08,2973,29.15,52.9%,64.8%
107,Robert Garrigus ,39,21,65,13,8,3,0,"$1,024,900 ",129,39128,303.3,70.85,4574,31.11,0.4,0.69,-0.21,1922,29.57,53.9%,69.3%
108,John Huh ,26,28,85,16,12,3,0,"$1,007,219 ",170,48394,284.7,71.1,6018,25.81,0.02,0.07,-0.21,2471,29.07,68.3%,66.2%
109,Jon Rahm,22,9,30,7,2,3,0,"$1,004,035 ",60,18416,306.9,69.14,2084,-9.73,0.86,0.07,1.27,853,28.43,61.2%,68.2%
110,Robert Streb ,29,27,84,17,10,1,0,"$1,003,363 ",151,44496,294.7,71.22,5986,-3.3,0.06,0.28,-0.43,2512,29.9,57.5%,66.2%
111,Boo Weekley,43,26,83,15,11,2,0,"$991,660 ",166,48383,291.5,71,5867,25.97,0.57,-0.09,-0.23,2442,29.42,67.0%,67.9%
112,John Senden ,45,28,86,16,12,1,0,"$989,841 ",163,47215,289.7,70.72,6067,14.67,0.23,0.2,0.33,2535,29.48,60.1%,68.9%
113,Seung-hoon Kang,33,29,87,16,13,2,0,"$979,576 ",174,50873,292.4,70.86,6156,8.51,-0.01,-0.12,0.19,2528,29.06,59.4%,65.3%
114,Lucas Glover ,37,23,75,15,8,2,0,"$948,928 ",150,44751,298.3,70.53,5275,15.06,0.57,0.31,-0.19,2235,29.8,64.4%,71.6%
115,Troy Merritt ,31,26,77,12,14,1,0,"$922,707 ",146,41924,287.2,71.67,5481,37.92,-0.3,-0.14,0.24,2203,28.61,60.9%,63.1%
116,Soren Kjeldsen,41,12,40,10,2,2,0,"$921,468 ",72,19815,275.2,70.63,2851,-25.79,-0.43,0.28,-0.06,1163,29.08,68.6%,63.3%
117,Graham DeLaet ,34,21,66,13,8,3,0,"$908,557 ",130,38728,297.9,71.07,4687,3.88,0.27,0.6,-0.21,1963,29.74,60.1%,68.4%
118,Zac Blair ,26,31,95,18,13,2,0,"$903,459 ",182,50113,275.3,71.49,6769,22.5,-0.07,-0.5,0.2,2726,28.69,69.9%,62.3%
119,Keegan Bradley,30,26,82,15,11,2,0,"$899,985 ",156,46794,300,70.74,5803,-2.26,0.31,0.42,-0.63,2469,30.11,64.6%,69.6%
120,Derek Fathauer ,30,30,94,19,11,1,0,"$898,430 ",188,54190,288.2,71.07,6683,-2.11,-0.51,-0.23,0.35,2679,28.5,52.0%,62.0%
121,Anirban Lahiri,29,21,69,16,5,1,0,"$835,171 ",122,35587,291.7,71.14,4920,-11.42,0.03,0.14,-0.02,1993,28.88,56.3%,62.9%
122,David Toms,49,19,62,12,7,1,0,"$774,522 ",124,33439,269.7,70.87,4399,-4.95,-0.39,0.36,0.13,1811,29.21,68.0%,65.5%
123,Ken Duke ,47,20,54,8,12,2,0,"$773,025 ",108,30257,280.2,71.88,3890,-8.48,0.04,-0.2,-0.52,1563,28.94,64.2%,59.3%
124,Blayne Barber ,26,27,80,15,12,1,0,"$768,585 ",160,46331,289.6,71.03,5658,24.57,0.02,0.13,0.01,2349,29.36,62.4%,66.7%
125,Steve Marino ,36,24,68,12,12,2,0,"$768,200 ",135,39415,292,71.47,4848,11.77,0.11,-0.34,0.05,1997,29.37,58.5%,66.0%
126,Bud Cauley,26,15,48,9,6,3,0,"$760,430 ",94,28212,300.1,70.43,3284,26.27,0.32,-0.08,0.01,1353,28.14,60.9%,66.3%
127,Luke List ,31,27,77,12,15,2,0,"$751,001 ",154,47257,306.9,70.75,5436,12.09,0.43,0.28,-0.27,2244,29.14,51.0%,67.2%
128,Retief Goosen,47,16,55,12,4,0,0,"$745,735 ",110,31764,288.8,70.58,3900,-18.06,-0.39,0.08,0.46,1564,28.44,56.4%,62.7%
129,Chad Collins ,38,26,73,10,16,1,0,"$734,548 ",146,40776,279.3,71.53,5206,15.81,-0.63,-0.23,0,2103,28.81,57.4%,62.4%
130,Morgan Hoffmann ,27,25,67,10,15,1,0,"$717,890 ",126,37100,294.4,71.37,4766,15.94,-0.07,-0.19,0.21,1939,28.94,57.8%,63.3%
131,Matthew Fitzpatrick,22,12,34,7,5,2,0,"$713,917 ",60,16697,278.3,70.82,2439,-31.04,-0.25,-0.38,0.5,1013,29.79,68.9%,65.6%
132,Matt Jones ,36,27,80,15,12,0,0,"$712,723 ",143,42153,294.8,71.22,5693,4.82,0.01,-0.27,-0.31,2329,29.11,57.6%,64.0%
133,Tim Wilkinson ,38,22,68,13,9,1,0,"$708,623 ",136,37981,279.3,70.7,4788,19.89,-0.46,0.43,0.34,1941,28.54,62.4%,64.7%
134,Martin Kaymer,31,10,34,9,1,1,0,"$701,140 ",60,17210,286.8,70.72,2445,-40.54,0.13,0.47,0.42,1009,29.68,58.7%,63.2%
135,Shawn Stefani ,34,29,87,15,14,1,0,"$698,102 ",174,50817,292.1,71.29,6177,24.96,0,0.07,-0.34,2574,29.59,58.4%,66.5%
136,Scott Stallings ,31,27,70,10,17,1,0,"$697,434 ",140,41368,295.5,70.97,4957,10.59,0.23,0.2,-0.29,2038,29.11,57.0%,66.1%
137,Greg Chalmers,43,12,33,5,7,0,0,"$695,188 ",58,16637,286.8,72.42,2386,3.94,-1.62,-0.65,-0.09,965,29.24,50.7%,70.6%
138,Meen Whee Kim,24,27,78,13,14,2,0,"$682,662 ",156,44870,287.6,71.47,5561,13.8,0.25,-0.39,-0.22,2305,29.56,63.5%,65.7%
139,Kiradech Aphibarnrat,27,11,32,7,4,1,0,"$680,450 ",56,16518,295,71.5,2309,-20.93,0.09,-0.72,0.77,913,28.53,53.6%,57.5%
140,Will Wilcox,30,23,65,11,12,2,0,"$676,841 ",130,38080,292.9,71.06,4613,5.61,0.37,0.26,0.36,1868,28.74,59.3%,63.4%
141,Tyrrell Hatton,25,5,18,4,1,2,0,"$674,788 ",28,8193,292.6,69.4,1250,-0.81,0.36,0.86,-0.02,522,29,62.7%,69.4%
142,Michael Kim ,23,29,96,21,8,0,0,"$664,539 ",192,54595,284.3,71.2,6814,21.51,-0.15,-0.11,0.28,2740,28.54,58.6%,63.0%
143,Seung-Yul Noh,25,28,81,15,13,1,0,"$661,711 ",162,47834,295.3,71.06,5746,9.93,-0.64,0.11,0.18,2341,28.9,49.1%,64.5%
144,Padraig Harrington ,45,16,54,11,5,1,0,"$654,929 ",100,28960,289.6,71.03,3830,5.71,-0.29,0.16,-0.34,1550,28.7,60.7%,63.0%
145,Mark Hubbard ,27,30,97,20,10,0,0,"$642,942 ",194,54354,280.2,71.36,6899,23.1,-0.14,-0.19,0.27,2789,28.75,64.8%,63.5%
146,Hiroshi Iwata,35,29,83,14,15,1,0,"$634,862 ",157,45339,288.8,71.69,5932,18.5,-0.13,-0.61,0.15,2352,28.34,58.3%,59.5%
147,Nick Taylor,28,26,79,15,11,1,0,"$628,756 ",150,44429,296.2,71.28,5597,34.21,0.15,0.06,-0.15,2291,29,57.2%,65.8%
148,Ben Crane ,40,27,77,13,14,1,0,"$607,892 ",144,40362,280.3,70.91,5377,12.01,-0.15,-0.01,0.22,2174,28.61,63.2%,63.6%
149,Steve Wheatcroft ,38,26,81,15,11,1,0,"$601,164 ",162,46371,286.2,71.43,5772,13.73,0.01,-0.39,0.15,2322,28.67,60.3%,61.9%
150,Chris Stroud,34,27,80,16,11,1,0,"$599,176 ",160,45813,286.3,71.1,5662,26.09,-0.07,0.16,0.15,2335,29.19,60.7%,66.6%
151,Kyle Stanley,28,28,89,17,11,0,0,"$580,734 ",177,51001,288.1,70.99,6308,9.71,0.08,0.26,-0.13,2623,29.47,64.5%,67.2%
152,Andres Gonzales ,33,28,78,12,16,1,0,"$579,667 ",156,45980,294.7,71.68,5564,27.15,-0.22,-0.11,0.01,2301,29.5,54.6%,66.2%
153,Martin Piller ,31,22,57,8,14,2,0,"$570,740 ",113,32388,286.6,71.81,4079,14.32,-0.25,-0.48,0.56,1644,28.84,59.0%,64.3%
154,Andy Sullivan,30,11,36,9,2,0,0,"$561,779 ",64,18239,285,70.97,2584,-28.93,-0.07,0.1,0.25,1064,29.56,63.3%,64.5%
155,Tom Hoge ,27,26,77,13,13,2,0,"$561,559 ",154,44584,289.5,71.44,5489,12.17,-0.32,0.24,-0.07,2220,28.83,55.8%,62.5%
156,Ernie Els,47,21,66,12,9,1,0,"$559,024 ",124,36310,292.8,71.37,4735,-24.52,0.07,-0.48,0.41,1902,28.82,52.9%,61.2%
157,Bronson Burgoon ,29,27,79,15,12,0,0,"$557,020 ",157,46018,293.1,71.13,5605,14.46,0.07,0.13,0.02,2315,29.3,57.3%,66.2%
158,Michael Thompson ,31,23,68,12,11,1,0,"$521,983 ",135,39340,291.4,71.2,4814,27.89,-0.07,0.15,-0.21,1992,29.29,60.6%,66.2%
159,Jamie Donaldson,41,13,41,10,3,0,0,"$520,052 ",82,23485,286.4,70.71,2939,-39.76,-0.33,0.04,0.78,1191,29.05,50.9%,61.9%
160,Ross Fisher,35,4,14,3,1,1,0,"$518,643 ",20,6021,301.1,70.59,992,-3.77,0.77,0.38,-0.15,427,30.5,65.8%,71.4%
161,Tyler Aldridge ,32,28,79,13,15,0,0,"$517,738 ",158,45059,285.2,71.41,5616,25.57,-0.12,-0.03,-0.13,2325,29.43,58.0%,65.5%
162,Sam Saunders ,29,24,65,9,15,1,0,"$510,079 ",130,37940,291.8,71.43,4630,12.73,-0.19,-0.11,0.06,1897,29.18,59.8%,64.4%
163,Chesson Hadley ,29,27,79,13,14,0,0,"$503,993 ",149,44174,296.5,71.54,5638,13.72,-0.04,0.13,-0.17,2311,29.25,56.6%,65.3%
164,Stuart Appleby,45,23,69,13,10,0,0,"$500,214 ",138,39010,282.7,70.95,4875,20.53,-0.17,-0.1,0.2,1942,28.14,62.2%,61.4%
165,Greg Owen ,44,29,81,13,16,1,0,"$484,955 ",154,45851,297.7,71.68,5778,27.86,0.28,0.53,-0.95,2457,30.33,59.2%,69.8%
166,Cameron Smith ,23,24,69,12,12,0,0,"$477,843 ",122,34930,286.3,71.76,4950,1.37,-0.36,-0.29,-0.06,2016,29.22,59.2%,62.7%
167,Bryson DeChambeau,23,12,38,7,5,1,0,"$476,621 ",76,22389,294.6,70.63,2708,-24.21,0.25,0.01,0.29,1077,28.34,55.8%,59.5%
168,Rob Oppenheim ,36,21,63,11,10,1,0,"$462,427 ",125,35156,281.2,71.44,4498,2.41,-0.72,0.29,-0.05,1836,29.14,55.3%,63.6%
169,Steven Bowditch ,33,26,71,11,15,1,0,"$458,891 ",126,36398,288.9,74.26,5268,4.57,-1.62,-1.68,0.13,2031,28.61,43.0%,54.5%
170,Camilo Villegas,34,27,79,14,13,0,0,"$450,056 ",158,45349,287,71.44,5643,0.75,-0.76,0.08,0.2,2276,28.81,52.2%,62.1%
171,Brice Garnett,33,15,41,6,9,2,0,"$446,565 ",82,23374,285,71.46,2900,29.98,0.22,-0.55,0.35,1211,29.54,66.1%,69.4%
172,Stewart Cink ,43,19,61,11,8,0,0,"$437,855 ",114,33842,296.9,70.85,4300,21.58,-0.05,0.49,-0.4,1841,30.18,58.4%,70.4%
173,Luke Guthrie ,26,19,55,9,10,1,0,"$427,442 ",110,31822,289.3,71.42,3893,34.9,-0.82,-0.08,0.4,1556,28.29,55.5%,63.1%
174,Jason Gore ,42,27,74,12,15,0,0,"$416,654 ",140,40486,289.2,71.63,5276,24.36,0.2,-0.04,-0.08,2163,29.23,63.6%,66.5%
175,Will MacKenzie ,42,26,80,14,12,1,0,"$416,033 ",160,45699,285.6,71.4,5696,16.16,0.03,0.07,-0.48,2366,29.58,60.8%,66.4%
176,Brendon de Jonge ,36,30,81,11,19,0,0,"$415,583 ",154,44273,287.5,71.6,5767,32.84,-0.23,-0.2,0.16,2369,29.25,59.2%,65.6%
177,Jeff Overton ,33,25,66,10,15,1,0,"$410,246 ",130,37050,285,71.47,4620,25.32,-0.05,-0.16,-0.42,1888,29.05,59.3%,63.9%
178,Kelly Kraft,28,20,59,10,10,1,0,"$403,437 ",117,33906,289.8,71.33,4178,30.65,0.01,-0.04,0.19,1721,29.17,60.4%,67.4%
179,Geoff Ogilvy ,39,22,59,8,14,1,0,"$397,595 ",118,34439,291.9,71.46,4214,2.39,-0.08,0.17,-0.44,1727,29.27,61.2%,63.7%
180,Bernd Wiesberger,31,11,30,6,5,0,0,"$390,674 ",52,14877,286.1,71.27,2166,-27.9,0.06,0.41,-0.37,911,30.37,63.3%,68.2%
181,Scott Langley ,27,22,63,10,12,0,0,"$380,025 ",126,35999,285.7,71.8,4488,35.17,0.11,-1,0.05,1836,29.14,64.8%,63.9%
182,Andrew Landry ,29,18,49,7,11,1,0,"$373,980 ",98,28876,294.7,71.14,3475,11,0.59,-0.89,0.65,1419,28.96,65.6%,64.6%
183,Ian Poulter,40,13,45,9,4,1,0,"$370,256 ",82,23202,283,71.74,3253,-24.51,-0.08,-0.74,-0.75,1310,29.11,62.9%,60.7%
184,Bobby Wyatt,24,6,16,3,3,1,0,"$353,348 ",32,9072,283.5,71.07,1127,10.17,-0.27,-0.29,0.39,451,29.8,60.7%,63.2%
185,Chris Wood,28,8,23,6,2,0,0,"$348,340 ",36,10420,289.4,71.28,1589,-20.83,0.23,0.26,-1.59,654,29.73,56.8%,65.9%
186,Thomas Aiken ,33,23,66,11,12,0,0,"$347,686 ",124,36016,290.5,71.33,4682,25.5,0.44,0.1,0.01,1985,30.08,72.4%,70.2%
187,Wes Roach,27,21,55,8,13,0,0,"$342,098 ",110,32415,294.7,71.7,3919,24.49,-0.02,-0.26,0.3,1591,28.93,61.0%,63.2%
188,Andrew Johnston,27,4,16,4,0,1,0,"$336,762 ",32,9705,303.3,69.68,1144,-29.19,0.95,-0.97,-0.11,481,30.5,66.5%,62.5%
189,Scott Pinckney,27,29,85,15,14,0,0,"$332,533 ",162,48085,296.8,71.52,6035,44.52,0.51,-0.4,-0.06,2547,29.96,63.1%,69.0%
190,Thongchai Jaidee,47,8,24,6,2,0,0,"$326,950 ",40,11167,279.2,71.27,1727,16.5,0.05,0.29,-0.9,697,29.5,62.5%,62.0%
191,Cameron Percy,42,15,45,9,6,0,0,"$313,456 ",90,26624,295.8,71.03,3175,21.34,0.2,0.29,-0.29,1342,29.82,60.3%,70.3%
192,Mark Wilson,42,21,62,11,10,0,0,"$306,866 ",124,34063,274.7,71.44,4413,16.01,-0.5,-0.06,-0.16,1828,29.48,66.2%,65.0%
193,D.A. Points ,39,18,51,9,9,0,0,"$305,250 ",102,28791,282.3,71.66,3630,24.4,-0.49,0.64,-0.6,1488,29.18,59.5%,65.4%
194,Dawie van der Walt,33,25,70,11,14,0,0,"$301,697 ",140,40622,290.2,71.38,4971,25.3,-0.01,0.21,-0.06,2064,29.49,56.9%,66.8%
195,Tim Herron,46,14,41,7,7,0,0,"$297,238 ",82,23080,281.5,71.95,2925,24.87,-0.15,-0.96,0.01,1182,28.83,64.8%,63.8%
196,Henrik Norlander,29,21,67,13,8,0,0,"$290,889 ",133,38316,288.1,71.16,4734,33.52,0.09,0.07,0.02,1975,29.48,63.4%,68.2%
197,Justin Leonard,44,13,40,7,6,0,0,"$288,428 ",80,21894,273.7,71.47,2866,-7.15,-0.41,-0.18,-0.18,1135,28.38,68.7%,57.5%
198,J.J. Henry ,41,24,66,11,13,0,0,"$280,674 ",132,37930,287.3,72.02,4744,9.26,-0.14,-0.23,-0.24,2010,30.45,59.3%,67.5%
199,Brian Gay,44,13,34,4,9,1,0,"$280,619 ",68,18393,270.5,71.93,2446,-0.43,-0.6,-1.22,0.62,920,27.06,63.2%,52.6%
200,Angel Cabrera ,47,22,63,12,10,0,0,"$277,118 ",124,36530,294.6,72.18,4479,-4.18,0.09,-0.25,-0.35,1839,29.66,58.1%,63.1%
